<?xml version="1.0" encoding="utf-8"?>
<!-- Generator: Adobe Illustrator 18.1.1, SVG Export Plug-In . SVG Version: 6.00 Build 0)  -->
<svg version="1.1" id="Слой_1" xmlns="http://www.w3.org/2000/svg" xmlns:xlink="http://www.w3.org/1999/xlink" x="0px" y="0px"
	 width="30px" height="30px" viewBox="0 0 30 30" enable-background="new 0 0 30 30" xml:space="preserve">
<g>
	<defs>
		<rect id="SVGID_1_" y="0.2" width="28" height="28.8"/>
	</defs>
	<clipPath id="SVGID_2_">
		<use xlink:href="#SVGID_1_"  overflow="visible"/>
	</clipPath>
	<path clip-path="url(#SVGID_2_)" fill="#FFFFFF" d="M10.8,4.6c-3.2,0-5.9,2.6-5.9,5.9s2.6,5.9,5.9,5.9s5.9-2.6,5.9-5.9
		S14.1,4.6,10.8,4.6"/>
	<path clip-path="url(#SVGID_2_)" fill="#FFFFFF" d="M16.4,18.4H5.2c-2.9,0-5.2,2.4-5.2,5.5V29h21.7v-5.1
		C21.6,20.8,19.3,18.4,16.4,18.4"/>
	<path clip-path="url(#SVGID_2_)" fill="#FFFFFF" d="M28,7.8c-0.4-4.5-4.5-7.9-9-7.5c-2.2,0.2-4.1,1.2-5.6,2.9l-0.1,0.1l0.1,0.1
		c0.3,0.2,0.6,0.3,0.9,0.5l0.1,0l0.1-0.1c1.2-1.3,2.8-2.1,4.5-2.3h0.2h0v0.6h1.2V1.5c1.5,0.2,3,0.9,4.1,2L24.2,4l0.9,0.8l0.4-0.4
		c0.7,1,1.2,2.2,1.3,3.4h-0.8V9h0.8c-0.1,1.5-0.7,2.9-1.7,4.1l-0.5-0.5l-0.8,0.8l0.5,0.5c-1,0.9-2.3,1.4-3.6,1.5v-0.8h-1.2v0.9
		c-0.9-0.1-1.8-0.3-2.6-0.6l-0.1,0l0,0.1c-0.2,0.3-0.5,0.6-0.7,0.8l-0.1,0.1l0.1,0.1c1.2,0.6,2.5,0.9,3.7,0.9c0.2,0,0.5,0,0.8,0
		c2.2-0.2,4.2-1.2,5.6-2.9C27.5,12.1,28.2,10,28,7.8"/>
</g>
<polygon fill="#FFFFFF" points="19.3,4.3 19.3,9.2 24,9.2 24,8 20.6,8 20.6,4.3 "/>
</svg>
